{
  "level": 1400832,
  "hash": "BLTv2V9TjbhxPTeptQeasfGRymKDnQ8SWKzxsanPJyrZK4tYTgQ",
  "protocol": "PtEdo2ZkT9oKpimTah6x2embF25oss54njMuPzkJTEi5RqfdZFA",
  "timestamp": "2021-03-26T01:18:52Z",
  "votingEpoch": 26,
  "votingPeriod": 43,
  "knownLevel": 1400866,
  "lastSync": "2021-03-26T01:55:17.448946Z",
  "synced": false,
  "quoteLevel": 1400832,
  "quoteBtc": 7.680643537762857e-05,
  "quoteEur": 3.404450585659153,
  "quoteUsd": 4.011125258802522
}
